{
    "timestamp": 1615908193,
    "signature": "910185725fb099a7b5bfb01b80a54d6a",
    "content": {
        "success": true,
        "async": false,
        "pagination": {
            "current_page": 1,
            "last_page": 2,
            "per_page": 5,
            "total": 6,
            "next_page_url": "http://dev-product.api.hopn.space/categories?limit=5&page=2",
            "prev_page_url": null
        },
        "body": [
            {
                "id": "cat_bcc3b36c2dd0ae4a1c57c",
                "deleted_at": null,
                "created_at": "2021-03-15T15:21:54.000000Z",
                "updated_at": "2021-03-15T15:21:54.000000Z",
                "title": "Traduction en français",
                "text": "Abonnement"
            },
            {
                "id": "cat_1ddf322d0c198c29b50ce",
                "deleted_at": null,
                "created_at": "2021-03-15T15:21:54.000000Z",
                "updated_at": "2021-03-15T15:21:54.000000Z",
                "title": "Traduction en français",
                "text": "Boisson"
            },
            {
                "id": "cat_d10be1a57a0fddafc85b5",
                "deleted_at": null,
                "created_at": "2021-03-15T15:21:54.000000Z",
                "updated_at": "2021-03-15T15:21:54.000000Z",
                "title": "Traduction en français",
                "text": "nourriture"
            },
            {
                "id": "cat_3a61a9ed91efe584ca27c",
                "deleted_at": null,
                "created_at": "2021-03-15T15:21:54.000000Z",
                "updated_at": "2021-03-15T15:21:54.000000Z",
                "title": "Traduction en français",
                "text": "repas"
            }
        ]
    }
}
