{
    "timestamp": 1615908249,
    "signature": "aecdbd9840a02641e457aeb1e2613e29",
    "content": {
        "success": true,
        "async": false,
        "pagination": {
            "current_page": 1,
            "last_page": 2,
            "per_page": 5,
            "total": 6,
            "next_page_url": "http://dev-product.api.hopn.space/categories?filters%255Brelations%255D=%255B%2522translationsList%2522%252C%2522products%2522%252C%2522compositeProducts%2522%252C%2522discounts%2522%255D&limit=5&page=2",
            "prev_page_url": null
        },
        "body": [
            {
                "id": "cat_bcc3b36c2dd0ae4a1c57c",
                "deleted_at": null,
                "created_at": "2021-03-15T15:21:54.000000Z",
                "updated_at": "2021-03-15T15:21:54.000000Z",
                "title": "Traduction en français",
                "text": "Abonnement",
                "translations_list": [
                    {
                        "id": "cattrad_d8c93817712865f96",
                        "category_id": "cat_bcc3b36c2dd0ae4a1c57c",
                        "locale": "fr-FR",
                        "title": "Traduction en français",
                        "text": "Abonnement",
                        "deleted_at": null,
                        "created_at": "2021-03-15T15:21:54.000000Z",
                        "updated_at": "2021-03-15T15:21:54.000000Z"
                    },
                    {
                        "id": "cattrad_c604267473bac50ac",
                        "category_id": "cat_bcc3b36c2dd0ae4a1c57c",
                        "locale": "en-US",
                        "title": "English Translations",
                        "text": "Subscription",
                        "deleted_at": null,
                        "created_at": "2021-03-15T15:21:54.000000Z",
                        "updated_at": "2021-03-15T15:21:54.000000Z"
                    }
                ],
                "products": [],
                "composite_products": [],
                "discounts": []
            },
            {
                "id": "cat_1ddf322d0c198c29b50ce",
                "deleted_at": null,
                "created_at": "2021-03-15T15:21:54.000000Z",
                "updated_at": "2021-03-15T15:21:54.000000Z",
                "title": "Traduction en français",
                "text": "Boisson",
                "translations_list": [
                    {
                        "id": "cattrad_e9e47a24fa73fd8af",
                        "category_id": "cat_1ddf322d0c198c29b50ce",
                        "locale": "fr-FR",
                        "title": "Traduction en français",
                        "text": "Boisson",
                        "deleted_at": null,
                        "created_at": "2021-03-15T15:21:54.000000Z",
                        "updated_at": "2021-03-15T15:21:54.000000Z"
                    },
                    {
                        "id": "cattrad_5eeaef83d26cad45a",
                        "category_id": "cat_1ddf322d0c198c29b50ce",
                        "locale": "en-US",
                        "title": "English Translations",
                        "text": "Drinks",
                        "deleted_at": null,
                        "created_at": "2021-03-15T15:21:54.000000Z",
                        "updated_at": "2021-03-15T15:21:54.000000Z"
                    }
                ],
                "products": [
                    {
                        "id": "product_3888c3b144ccdc59c",
                        "deleted_at": null,
                        "created_at": "2021-03-15T15:21:54.000000Z",
                        "updated_at": "2021-03-15T15:21:54.000000Z",
                        "title": "Traduction en français",
                        "text": "Mimosa"
                    },
                    {
                        "id": "product_8a72e4d0f1fd12d03",
                        "deleted_at": null,
                        "created_at": "2021-03-15T15:21:54.000000Z",
                        "updated_at": "2021-03-15T15:21:54.000000Z",
                        "title": "Traduction en français",
                        "text": "café"
                    },
                    {
                        "id": "product_4c053842dc07c0330",
                        "deleted_at": null,
                        "created_at": "2021-03-15T15:21:54.000000Z",
                        "updated_at": "2021-03-15T15:21:54.000000Z",
                        "title": "Traduction en français",
                        "text": "apéritif"
                    }
                ],
                "composite_products": [],
                "discounts": []
            },
            {
                "id": "cat_d10be1a57a0fddafc85b5",
                "deleted_at": null,
                "created_at": "2021-03-15T15:21:54.000000Z",
                "updated_at": "2021-03-15T15:21:54.000000Z",
                "title": "Traduction en français",
                "text": "nourriture",
                "translations_list": [
                    {
                        "id": "cattrad_80bfe98ea61de25b4",
                        "category_id": "cat_d10be1a57a0fddafc85b5",
                        "locale": "fr-FR",
                        "title": "Traduction en français",
                        "text": "nourriture",
                        "deleted_at": null,
                        "created_at": "2021-03-15T15:21:54.000000Z",
                        "updated_at": "2021-03-15T15:21:54.000000Z"
                    },
                    {
                        "id": "cattrad_1f5108d18e0be26c1",
                        "category_id": "cat_d10be1a57a0fddafc85b5",
                        "locale": "en-US",
                        "title": "English Translations",
                        "text": "food",
                        "deleted_at": null,
                        "created_at": "2021-03-15T15:21:54.000000Z",
                        "updated_at": "2021-03-15T15:21:54.000000Z"
                    }
                ],
                "products": [
                    {
                        "id": "product_9f71793f1bff89227",
                        "deleted_at": null,
                        "created_at": "2021-03-15T15:21:54.000000Z",
                        "updated_at": "2021-03-15T15:21:54.000000Z",
                        "title": "Traduction en français",
                        "text": "Croissant"
                    },
                    {
                        "id": "product_d66672dd6b9052218",
                        "deleted_at": null,
                        "created_at": "2021-03-15T15:21:54.000000Z",
                        "updated_at": "2021-03-15T15:21:54.000000Z",
                        "title": "Traduction en français",
                        "text": "Salade"
                    }
                ],
                "composite_products": [],
                "discounts": []
            },
            {
                "id": "cat_3a61a9ed91efe584ca27c",
                "deleted_at": null,
                "created_at": "2021-03-15T15:21:54.000000Z",
                "updated_at": "2021-03-15T15:21:54.000000Z",
                "title": "Traduction en français",
                "text": "repas",
                "translations_list": [
                    {
                        "id": "cattrad_1f045d3c526f80be9",
                        "category_id": "cat_3a61a9ed91efe584ca27c",
                        "locale": "fr-FR",
                        "title": "Traduction en français",
                        "text": "repas",
                        "deleted_at": null,
                        "created_at": "2021-03-15T15:21:54.000000Z",
                        "updated_at": "2021-03-15T15:21:54.000000Z"
                    },
                    {
                        "id": "cattrad_5ff116543d078c690",
                        "category_id": "cat_3a61a9ed91efe584ca27c",
                        "locale": "en-US",
                        "title": "English Translations",
                        "text": "Lunch",
                        "deleted_at": null,
                        "created_at": "2021-03-15T15:21:54.000000Z",
                        "updated_at": "2021-03-15T15:21:54.000000Z"
                    }
                ],
                "products": [],
                "composite_products": [
                    {
                        "id": "compproduct_64ba1e4ff721a",
                        "deleted_at": null,
                        "created_at": "2021-03-15T15:21:54.000000Z",
                        "updated_at": "2021-03-15T15:21:54.000000Z",
                        "title": "Traduction en français",
                        "text": "petit déjeuner"
                    },
                    {
                        "id": "compproduct_c0b5eb2d85401",
                        "deleted_at": null,
                        "created_at": "2021-03-15T15:21:54.000000Z",
                        "updated_at": "2021-03-15T15:21:54.000000Z",
                        "title": "Traduction en français",
                        "text": "déjeuner"
                    }
                ],
                "discounts": []
            }
        ]
    }
}
